…
İçerisinde **yönetici**,**müdür**,**manager** kelimelerinin geçtiği ilananlarının minimum tecrübe süresini incelendiğinde 5.yıldan itibaren ilan sayısında hatrı sayılır artış görülmüştür. 5 yıllık tecrübe yönetici pozisyonu sayısındaki ivme dikkate alındığında Türkiyedeki yönetici pozisyonları aranan bir özellik olduğu görülmüştür.

İlan içeriklerinin analiz edilmesi
==================================

Bu aşamada ilan içeriklerindeki yeteneklerin bulunması ve benzer iş ilanlarının kümelenerek bu ilanlara ait becerilerde ne tür farklılıklar/benzerlikler olduğu bulunacak ve bulgular analiz edilecektir.

Rapor kapsamında çoğunlukla hard skill olarak geçen teknik yetenekler baz alınmıştır.Hard skills(Teknik yetenekler), Teknik bilgi gerektiren bir iş için adaydan öncelikli olarak beklenen iş bilgisidir. Soft skills(ince yetenekler) ise bir adayın sosyal kabiliyetleri ile alakalı vasıflardır. ikna kabiliyeti, takım çalışmasına uyumluluk, sunum becerisi, değişikliğe adapte olabilme gibi pek çok kabiliyet vardır. İnce yetenekler, adayların iş yerinde yükselebilme şansını yükseltirken aynı zamanda işten alınabilecek verimi artırmasını sağlar bu sayede çalışan teknik becerilerinin yanı sıra diğer adaylardan sıyrılabilir. İnce yeteneklerin belirlenmesi bu çalışmanın bir odağı değildir. Çünkü ince yetenekler sektörden bağımsız olarak her zaman geçerlidir. Bununla beraber bir adayın ince yeteneklerini objektif olarak belirlemek oldukça uzun bir süreçtir(yönetici adayları için Assessment centre hizmeti alınması).

Metinlerin temizlenmesi
-----------------------

    ## # A tibble: 496 x 5
    ##    pozisyon            cluster `Departman:`   `Firma Sektörü:`     pozisyon_kisa
    ##    <chr>                 <dbl> <chr>          <chr>                <chr>        
    ##  1 Fiyat Araştırma Pr~       0 Analiz / Araş~ Araştırma Hizmetleri veri analisti
    ##  2 Aktüeryal Raporlam~       1 AKtüerya       Sigortacılık         finans anali~
    ##  3 Aktüerya Kıdemli U~       0 AKtüerya       Sigortacılık         finans anali~
    ##  4 Aktüeryal Rezerv M~       1 Aktüerya       Sigortacılık         finans anali~
    ##  5 Aktüeryal Rezerv U~       1 Aktüerya       Sigortacılık         finans anali~
    ##  6 Banka Yetkilisi/Yö~       8 Analiz / Araş~ Faktoring            finans anali~
    ##  7 Veri Analiz Uzmanı        5 Analiz / Araş~ Bilişim              veri analisti
    ##  8 Raporlama Uzmanı          8 Analiz / Araş~ Hizmet               veri analisti
    ##  9 Ürün Maliyet Anali~       8 Analiz / Araş~ Üretim / Endüstriye~ veri analisti
    ## 10 Raporlama Uzmanı          1 Analiz / Araş~ Çağrı Merkezi Hizme~ veri analisti
    ## # ... with 486 more rows
…
